%!PS-Adobe-3.0 EPSF-3.0
%%Title: finalresult.eps
%%Creator: matplotlib version 1.2.1rc1, http://matplotlib.org/
%%CreationDate: Mon May 15 00:55:13 2017
%%Orientation: portrait
%%BoundingBox: 18 180 594 612
%%EndComments
%%BeginProlog
/mpldict 9 dict def
mpldict begin
/m { moveto } bind def
/l { lineto } bind def
/r { rlineto } bind def
/c { curveto } bind def
/cl { closepath } bind def
/box {
m
1 index 0 r
0 exch r
neg 0 r
cl
} bind def
/clipbox {
box
clip
newpath
} bind def
%!PS-Adobe-3.0 Resource-Font
%%Title: cmmi10
%%Copyright: Copyright (C) 1994, Basil K. Malyshev. All Rights Reserved.012BaKoMa Fonts Collection, Level-B.
%%Creator: Converted from TrueType to type 3 by PPR
25 dict begin
/_d{bind def}bind def
/_m{moveto}_d
/_l{lineto}_d
/_cl{closepath eofill}_d
/_c{curveto}_d
/_sc{7 -1 roll{setcachedevice}{pop pop pop pop pop pop}ifelse}_d
/_e{exec}_d
/FontName /Cmmi10 def
/PaintType 0 def
/FontMatrix[.001 0 0 .001 0 0]def
/FontBBox[-34 -250 1048 750]def
/FontType 3 def
/Encoding [ /sigma ] def
/FontInfo 10 dict dup begin
/FamilyName (cmmi10) def
/FullName (cmmi10) def
/Notice (Copyright (C) 1994, Basil K. Malyshev. All Rights Reserved.012BaKoMa Fonts Collection, Level-B. ) def
/Weight (Regular) def
/Version (1.1/12-Nov-94) def
/ItalicAngle 0.0 def
/isFixedPitch false def
/UnderlinePosition -133 def
/UnderlineThickness 20 def
end readonly def
/CharStrings 1 dict dup begin
/sigma{{571 0 36 -10 568 431 _sc
187 -10 _m
157 -10 131 -3 108 10 _c
85 24 67 43 55 67 _c
42 91 36 118 36 147 _c
36 177 43 210 57 244 _c
71 278 90 310 114 338 _c
138 366 166 389 197 406 _c
227 422 259 431 291 431 _c
543 431 _l
549 431 555 428 560 424 _c
565 419 568 413 568 406 _c
568 396 564 387 557 380 _c
550 372 542 369 532 369 _c
410 369 _l
}_e{429 340 439 305 439 265 _c
439 231 432 198 419 166 _c
406 133 388 103 365 77 _c
342 50 315 29 284 13 _c
253 -2 221 -10 187 -10 _c
188 15 _m
224 15 257 29 285 58 _c
313 86 334 121 349 162 _c
364 203 372 241 372 277 _c
372 305 364 328 348 344 _c
332 360 310 369 282 369 _c
243 369 210 356 183 330 _c
156 304 136 271 122 232 _c
108 192 102 154 102 118 _c
}_e{102 89 109 65 124 45 _c
139 25 160 15 188 15 _c
_cl}_e}_d
end readonly def

/BuildGlyph
 {exch begin
 CharStrings exch
 2 copy known not{pop /.notdef}if
 true 3 1 roll get exec
 end}_d

/BuildChar {
 1 index /Encoding get exch get
 1 index /BuildGlyph get exec
}_d

FontName currentdict end definefont pop
%!PS-Adobe-3.0 Resource-Font
%%Title: Bitstream Vera Sans
%%Copyright: Copyright (c) 2003 by Bitstream, Inc. All Rights Reserved.
%%Creator: Converted from TrueType to type 3 by PPR
25 dict begin
/_d{bind def}bind def
/_m{moveto}_d
/_l{lineto}_d
/_cl{closepath eofill}_d
/_c{curveto}_d
/_sc{7 -1 roll{setcachedevice}{pop pop pop pop pop pop}ifelse}_d
/_e{exec}_d
/FontName /BitstreamVeraSans-Roman def
/PaintType 0 def
/FontMatrix[.001 0 0 .001 0 0]def
/FontBBox[-183 -236 1287 928]def
/FontType 3 def
/Encoding [ /space /percent /parenleft /parenright /hyphen /period /slash /zero /one /two /three /four /five /six /N /S /T /a /c /d /e /f /i /l /m /n /o /q /r /s /t /u /w ] def
/FontInfo 10 dict dup begin
/FamilyName (Bitstream Vera Sans) def
/FullName (Bitstream Vera Sans) def
/Notice (Copyright (c) 2003 by Bitstream, Inc. All Rights Reserved. Bitstream Vera is a trademark of Bitstream, Inc.) def
/Weight (Roman) def
/Version (Release 1.10) def
/ItalicAngle 0.0 def
/isFixedPitch false def
/UnderlinePosition -213 def
/UnderlineThickness 143 def
end readonly def
/CharStrings 33 dict dup begin
/space{318 0 0 0 0 0 _sc
}_d
/percent{{950 0 55 -13 895 742 _sc
727 321 _m
699 321 676 309 660 285 _c
644 261 636 227 636 184 _c
636 142 644 108 660 84 _c
676 60 699 48 727 48 _c
755 48 777 60 793 84 _c
809 108 817 142 817 184 _c
817 226 809 260 793 284 _c
777 308 755 321 727 321 _c
727 383 _m
778 383 819 365 849 329 _c
879 293 895 244 895 184 _c
895 123 879 75 849 40 _c
819 4 778 -13 727 -13 _c
}_e{675 -13 633 4 603 40 _c
573 75 558 123 558 184 _c
558 245 573 293 603 329 _c
633 365 675 383 727 383 _c
223 680 _m
195 680 173 667 157 643 _c
141 619 133 586 133 544 _c
133 500 141 467 157 443 _c
173 419 195 407 223 407 _c
251 407 274 419 290 443 _c
306 467 314 500 314 544 _c
314 586 305 619 289 643 _c
273 667 251 680 223 680 _c
664 742 _m
742 742 _l
286 -13 _l
}_e{208 -13 _l
664 742 _l
223 742 _m
274 742 315 724 346 688 _c
376 652 392 604 392 544 _c
392 482 376 434 346 398 _c
316 362 275 345 223 345 _c
171 345 130 362 100 398 _c
70 434 55 482 55 544 _c
55 604 70 652 100 688 _c
130 724 171 742 223 742 _c
_cl}_e}_d
/parenleft{390 0 86 -131 310 759 _sc
310 759 _m
266 683 234 609 213 536 _c
191 463 181 389 181 314 _c
181 238 191 164 213 91 _c
234 17 266 -56 310 -131 _c
232 -131 _l
183 -54 146 20 122 94 _c
98 168 86 241 86 314 _c
86 386 98 459 122 533 _c
146 607 182 682 232 759 _c
310 759 _l
_cl}_d
/parenright{390 0 80 -131 304 759 _sc
80 759 _m
158 759 _l
206 682 243 607 267 533 _c
291 459 304 386 304 314 _c
304 241 291 168 267 94 _c
243 20 206 -54 158 -131 _c
80 -131 _l
123 -56 155 17 177 91 _c
198 164 209 238 209 314 _c
209 389 198 463 177 536 _c
155 609 123 683 80 759 _c
_cl}_d
/hyphen{361 0 49 234 312 314 _sc
49 314 _m
312 314 _l
312 234 _l
49 234 _l
49 314 _l
_cl}_d
/period{318 0 107 0 210 124 _sc
107 124 _m
210 124 _l
210 0 _l
107 0 _l
107 124 _l
_cl}_d
/slash{337 0 0 -92 337 729 _sc
254 729 _m
337 729 _l
83 -92 _l
0 -92 _l
254 729 _l
_cl}_d
/zero{636 0 66 -13 570 742 _sc
318 664 _m
267 664 229 639 203 589 _c
177 539 165 464 165 364 _c
165 264 177 189 203 139 _c
229 89 267 64 318 64 _c
369 64 407 89 433 139 _c
458 189 471 264 471 364 _c
471 464 458 539 433 589 _c
407 639 369 664 318 664 _c
318 742 _m
399 742 461 709 505 645 _c
548 580 570 486 570 364 _c
570 241 548 147 505 83 _c
461 19 399 -13 318 -13 _c
236 -13 173 19 130 83 _c
87 147 66 241 66 364 _c
66 486 87 580 130 645 _c
173 709 236 742 318 742 _c
_cl}_d
/one{636 0 110 0 544 729 _sc
124 83 _m
285 83 _l
285 639 _l
110 604 _l
110 694 _l
284 729 _l
383 729 _l
383 83 _l
544 83 _l
544 0 _l
124 0 _l
124 83 _l
_cl}_d
/two{{636 0 73 0 536 742 _sc
192 83 _m
536 83 _l
536 0 _l
73 0 _l
73 83 _l
110 121 161 173 226 239 _c
290 304 331 346 348 365 _c
380 400 402 430 414 455 _c
426 479 433 504 433 528 _c
433 566 419 598 392 622 _c
365 646 330 659 286 659 _c
255 659 222 653 188 643 _c
154 632 117 616 78 594 _c
78 694 _l
118 710 155 722 189 730 _c
223 738 255 742 284 742 _c
}_e{359 742 419 723 464 685 _c
509 647 532 597 532 534 _c
532 504 526 475 515 449 _c
504 422 484 390 454 354 _c
446 344 420 317 376 272 _c
332 227 271 164 192 83 _c
_cl}_e}_d
/three{{636 0 76 -13 556 742 _sc
406 393 _m
453 383 490 362 516 330 _c
542 298 556 258 556 212 _c
556 140 531 84 482 45 _c
432 6 362 -13 271 -13 _c
240 -13 208 -10 176 -4 _c
144 1 110 10 76 22 _c
76 117 _l
103 101 133 89 166 81 _c
198 73 232 69 268 69 _c
330 69 377 81 409 105 _c
441 129 458 165 458 212 _c
458 254 443 288 413 312 _c
383 336 341 349 287 349 _c
}_e{202 349 _l
202 430 _l
291 430 _l
339 430 376 439 402 459 _c
428 478 441 506 441 543 _c
441 580 427 609 401 629 _c
374 649 336 659 287 659 _c
260 659 231 656 200 650 _c
169 644 135 635 98 623 _c
98 711 _l
135 721 170 729 203 734 _c
235 739 266 742 296 742 _c
370 742 429 725 473 691 _c
517 657 539 611 539 553 _c
539 513 527 479 504 451 _c
481 423 448 403 406 393 _c
_cl}_e}_d
/four{636 0 49 0 580 729 _sc
378 643 _m
129 254 _l
378 254 _l
378 643 _l
352 729 _m
476 729 _l
476 254 _l
580 254 _l
580 172 _l
476 172 _l
476 0 _l
378 0 _l
378 172 _l
49 172 _l
49 267 _l
352 729 _l
_cl}_d
/five{{636 0 77 -13 549 729 _sc
108 729 _m
495 729 _l
495 646 _l
198 646 _l
198 467 _l
212 472 227 476 241 478 _c
255 480 270 482 284 482 _c
365 482 429 459 477 415 _c
525 370 549 310 549 234 _c
549 155 524 94 475 51 _c
426 8 357 -13 269 -13 _c
238 -13 207 -10 175 -6 _c
143 -1 111 6 77 17 _c
77 116 _l
106 100 136 88 168 80 _c
199 72 232 69 267 69 _c
}_e{323 69 368 83 401 113 _c
433 143 450 183 450 234 _c
450 284 433 324 401 354 _c
368 384 323 399 267 399 _c
241 399 214 396 188 390 _c
162 384 135 375 108 363 _c
108 729 _l
_cl}_e}_d
/six{{636 0 70 -13 573 742 _sc
330 404 _m
286 404 251 388 225 358 _c
199 328 186 286 186 234 _c
186 181 199 139 225 109 _c
251 79 286 64 330 64 _c
374 64 409 79 435 109 _c
461 139 474 181 474 234 _c
474 286 461 328 435 358 _c
409 388 374 404 330 404 _c
526 713 _m
526 623 _l
501 635 476 644 451 650 _c
425 656 400 659 376 659 _c
310 659 260 637 226 593 _c
}_e{192 549 172 482 168 394 _c
187 422 211 444 240 459 _c
269 474 301 482 336 482 _c
409 482 467 459 509 415 _c
551 371 573 310 573 234 _c
573 159 550 99 506 54 _c
462 9 403 -13 330 -13 _c
246 -13 181 19 137 83 _c
92 147 70 241 70 364 _c
70 479 97 571 152 639 _c
206 707 280 742 372 742 _c
396 742 421 739 447 735 _c
472 730 498 723 526 713 _c
_cl}_e}_d
/N{748 0 98 0 650 729 _sc
98 729 _m
231 729 _l
554 119 _l
554 729 _l
650 729 _l
650 0 _l
517 0 _l
194 610 _l
194 0 _l
98 0 _l
98 729 _l
_cl}_d
/S{{635 0 66 -13 579 742 _sc
535 705 _m
535 609 _l
497 627 462 640 429 649 _c
395 657 363 662 333 662 _c
279 662 237 651 208 631 _c
179 610 165 580 165 542 _c
165 510 174 485 194 469 _c
213 452 250 439 304 429 _c
364 417 _l
437 403 491 378 526 343 _c
561 307 579 260 579 201 _c
579 130 555 77 508 41 _c
460 5 391 -13 300 -13 _c
265 -13 228 -9 189 -2 _c
}_e{150 5 110 16 69 32 _c
69 134 _l
109 111 148 94 186 83 _c
224 71 262 66 300 66 _c
356 66 399 77 430 99 _c
460 121 476 152 476 194 _c
476 230 465 258 443 278 _c
421 298 385 313 335 323 _c
275 335 _l
201 349 148 372 115 404 _c
82 435 66 478 66 534 _c
66 598 88 649 134 686 _c
179 723 242 742 322 742 _c
356 742 390 739 426 733 _c
461 727 497 717 535 705 _c
}_e{_cl}_e}_d
/T{611 0 -2 0 614 729 _sc
-2 729 _m
614 729 _l
614 646 _l
355 646 _l
355 0 _l
256 0 _l
256 646 _l
-2 646 _l
-2 729 _l
_cl}_d
/a{{613 0 60 -13 522 560 _sc
343 275 _m
270 275 220 266 192 250 _c
164 233 150 205 150 165 _c
150 133 160 107 181 89 _c
202 70 231 61 267 61 _c
317 61 357 78 387 114 _c
417 149 432 196 432 255 _c
432 275 _l
343 275 _l
522 312 _m
522 0 _l
432 0 _l
432 83 _l
411 49 385 25 355 10 _c
325 -5 287 -13 243 -13 _c
187 -13 142 2 109 33 _c
76 64 60 106 60 159 _c
}_e{60 220 80 266 122 298 _c
163 329 224 345 306 345 _c
432 345 _l
432 354 _l
432 395 418 427 391 450 _c
364 472 326 484 277 484 _c
245 484 215 480 185 472 _c
155 464 127 453 100 439 _c
100 522 _l
132 534 164 544 195 550 _c
226 556 256 560 286 560 _c
365 560 424 539 463 498 _c
502 457 522 395 522 312 _c
_cl}_e}_d
/c{{550 0 55 -13 488 560 _sc
488 526 _m
488 442 _l
462 456 437 466 411 473 _c
385 480 360 484 334 484 _c
276 484 230 465 198 428 _c
166 391 150 339 150 273 _c
150 206 166 154 198 117 _c
230 80 276 62 334 62 _c
360 62 385 65 411 72 _c
437 79 462 90 488 104 _c
488 21 _l
462 9 436 0 410 -5 _c
383 -10 354 -13 324 -13 _c
242 -13 176 12 128 64 _c
}_e{79 115 55 185 55 273 _c
55 362 79 432 128 483 _c
177 534 244 560 330 560 _c
358 560 385 557 411 551 _c
437 545 463 537 488 526 _c
_cl}_e}_d
/d{{635 0 55 -13 544 760 _sc
454 464 _m
454 760 _l
544 760 _l
544 0 _l
454 0 _l
454 82 _l
435 49 411 25 382 10 _c
353 -5 319 -13 279 -13 _c
213 -13 159 13 117 65 _c
75 117 55 187 55 273 _c
55 359 75 428 117 481 _c
159 533 213 560 279 560 _c
319 560 353 552 382 536 _c
411 520 435 496 454 464 _c
148 273 _m
148 207 161 155 188 117 _c
215 79 253 61 301 61 _c
}_e{348 61 385 79 413 117 _c
440 155 454 207 454 273 _c
454 339 440 390 413 428 _c
385 466 348 485 301 485 _c
253 485 215 466 188 428 _c
161 390 148 339 148 273 _c
_cl}_e}_d
/e{{615 0 55 -13 562 560 _sc
562 296 _m
562 252 _l
149 252 _l
153 190 171 142 205 110 _c
238 78 284 62 344 62 _c
378 62 412 66 444 74 _c
476 82 509 95 541 113 _c
541 28 _l
509 14 476 3 442 -3 _c
408 -9 373 -13 339 -13 _c
251 -13 182 12 131 62 _c
80 112 55 181 55 268 _c
55 357 79 428 127 481 _c
175 533 241 560 323 560 _c
397 560 455 536 498 489 _c
}_e{540 441 562 377 562 296 _c
472 322 _m
471 371 457 410 431 440 _c
404 469 368 484 324 484 _c
274 484 234 469 204 441 _c
174 413 156 373 152 322 _c
472 322 _l
_cl}_e}_d
/f{352 0 23 0 371 760 _sc
371 760 _m
371 685 _l
285 685 _l
253 685 230 678 218 665 _c
205 652 199 629 199 595 _c
199 547 _l
347 547 _l
347 477 _l
199 477 _l
199 0 _l
109 0 _l
109 477 _l
23 477 _l
23 547 _l
109 547 _l
109 585 _l
109 645 123 690 151 718 _c
179 746 224 760 286 760 _c
371 760 _l
_cl}_d
/i{278 0 94 0 184 760 _sc
94 547 _m
184 547 _l
184 0 _l
94 0 _l
94 547 _l
94 760 _m
184 760 _l
184 646 _l
94 646 _l
94 760 _l
_cl}_d
/l{278 0 94 0 184 760 _sc
94 760 _m
184 760 _l
184 0 _l
94 0 _l
94 760 _l
_cl}_d
/m{{974 0 91 0 889 560 _sc
520 442 _m
542 482 569 511 600 531 _c
631 550 668 560 711 560 _c
767 560 811 540 842 500 _c
873 460 889 403 889 330 _c
889 0 _l
799 0 _l
799 327 _l
799 379 789 418 771 444 _c
752 469 724 482 686 482 _c
639 482 602 466 575 435 _c
548 404 535 362 535 309 _c
535 0 _l
445 0 _l
445 327 _l
445 379 435 418 417 444 _c
398 469 369 482 331 482 _c
}_e{285 482 248 466 221 435 _c
194 404 181 362 181 309 _c
181 0 _l
91 0 _l
91 547 _l
181 547 _l
181 462 _l
201 495 226 520 255 536 _c
283 552 317 560 357 560 _c
397 560 430 550 458 530 _c
486 510 506 480 520 442 _c
_cl}_e}_d
/n{634 0 91 0 549 560 _sc
549 330 _m
549 0 _l
459 0 _l
459 327 _l
459 379 448 417 428 443 _c
408 469 378 482 338 482 _c
289 482 251 466 223 435 _c
195 404 181 362 181 309 _c
181 0 _l
91 0 _l
91 547 _l
181 547 _l
181 462 _l
202 494 227 519 257 535 _c
286 551 320 560 358 560 _c
420 560 468 540 500 501 _c
532 462 549 405 549 330 _c
_cl}_d
/o{612 0 55 -13 557 560 _sc
306 484 _m
258 484 220 465 192 427 _c
164 389 150 338 150 273 _c
150 207 163 156 191 118 _c
219 80 257 62 306 62 _c
354 62 392 80 420 118 _c
448 156 462 207 462 273 _c
462 337 448 389 420 427 _c
392 465 354 484 306 484 _c
306 560 _m
384 560 445 534 490 484 _c
534 433 557 363 557 273 _c
557 183 534 113 490 63 _c
445 12 384 -13 306 -13 _c
227 -13 165 12 121 63 _c
77 113 55 183 55 273 _c
55 363 77 433 121 484 _c
165 534 227 560 306 560 _c
_cl}_d
/q{{635 0 55 -207 544 560 _sc
148 273 _m
148 207 161 155 188 117 _c
215 79 253 61 301 61 _c
348 61 385 79 413 117 _c
440 155 454 207 454 273 _c
454 339 440 390 413 428 _c
385 466 348 485 301 485 _c
253 485 215 466 188 428 _c
161 390 148 339 148 273 _c
454 82 _m
435 49 411 25 382 10 _c
353 -5 319 -13 279 -13 _c
213 -13 159 13 117 65 _c
75 117 55 187 55 273 _c
}_e{55 359 75 428 117 481 _c
159 533 213 560 279 560 _c
319 560 353 552 382 536 _c
411 520 435 496 454 464 _c
454 547 _l
544 547 _l
544 -207 _l
454 -207 _l
454 82 _l
_cl}_e}_d
/r{411 0 91 0 411 560 _sc
411 463 _m
401 469 390 473 378 476 _c
366 478 353 480 339 480 _c
288 480 249 463 222 430 _c
194 397 181 350 181 288 _c
181 0 _l
91 0 _l
91 547 _l
181 547 _l
181 462 _l
199 495 224 520 254 536 _c
284 552 321 560 365 560 _c
371 560 378 559 386 559 _c
393 558 401 557 411 555 _c
411 463 _l
_cl}_d
/s{{521 0 54 -13 472 560 _sc
443 531 _m
443 446 _l
417 458 391 468 364 475 _c
336 481 308 485 279 485 _c
234 485 200 478 178 464 _c
156 450 145 430 145 403 _c
145 382 153 366 169 354 _c
185 342 217 330 265 320 _c
296 313 _l
360 299 405 279 432 255 _c
458 230 472 195 472 151 _c
472 100 452 60 412 31 _c
372 1 316 -13 246 -13 _c
216 -13 186 -10 154 -5 _c
}_e{122 0 89 8 54 20 _c
54 113 _l
87 95 120 82 152 74 _c
184 65 216 61 248 61 _c
290 61 323 68 346 82 _c
368 96 380 117 380 144 _c
380 168 371 187 355 200 _c
339 213 303 226 247 238 _c
216 245 _l
160 257 119 275 95 299 _c
70 323 58 356 58 399 _c
58 450 76 490 112 518 _c
148 546 200 560 268 560 _c
301 560 332 557 362 552 _c
391 547 418 540 443 531 _c
}_e{_cl}_e}_d
/t{392 0 27 0 368 702 _sc
183 702 _m
183 547 _l
368 547 _l
368 477 _l
183 477 _l
183 180 _l
183 135 189 106 201 94 _c
213 81 238 75 276 75 _c
368 75 _l
368 0 _l
276 0 _l
206 0 158 13 132 39 _c
106 65 93 112 93 180 _c
93 477 _l
27 477 _l
27 547 _l
93 547 _l
93 702 _l
183 702 _l
_cl}_d
/u{634 0 85 -13 543 547 _sc
85 216 _m
85 547 _l
175 547 _l
175 219 _l
175 167 185 129 205 103 _c
225 77 255 64 296 64 _c
344 64 383 79 411 110 _c
439 141 453 183 453 237 _c
453 547 _l
543 547 _l
543 0 _l
453 0 _l
453 84 _l
431 50 405 26 377 10 _c
348 -5 315 -13 277 -13 _c
214 -13 166 6 134 45 _c
101 83 85 140 85 216 _c
_cl}_d
/w{818 0 42 0 776 547 _sc
42 547 _m
132 547 _l
244 120 _l
356 547 _l
462 547 _l
574 120 _l
686 547 _l
776 547 _l
633 0 _l
527 0 _l
409 448 _l
291 0 _l
185 0 _l
42 547 _l
_cl}_d
end readonly def

/BuildGlyph
 {exch begin
 CharStrings exch
 2 copy known not{pop /.notdef}if
 true 3 1 roll get exec
 end}_d

/BuildChar {
 1 index /Encoding get exch get
 1 index /BuildGlyph get exec
}_d

FontName currentdict end definefont pop
end
%%EndProlog
mpldict begin
18 180 translate
576 432 0 0 clipbox
gsave
0 0 m
576 0 l
576 432 l
0 432 l
cl
1.000 setgray
fill
grestore
gsave
72 43.2 m
518.4 43.2 l
518.4 388.8 l
72 388.8 l
cl
1.000 setgray
fill
grestore
/p0_0 {
newpath
translate
136.48 237.189 m
136.48 284.938 l
} bind def
/p0_1 {
newpath
translate
120.36 284.119 m
120.36 320.805 l
} bind def
/p0_2 {
newpath
translate

} bind def
/p0_3 {
newpath
translate

} bind def
/p0_4 {
newpath
translate

} bind def
/p0_5 {
newpath
translate
220.8 218.199 m
220.8 266.326 l
} bind def
/p0_6 {
newpath
translate
183.6 255.455 m
183.6 296.357 l
} bind def
/p0_7 {
newpath
translate
161.28 282.707 m
161.28 316.885 l
} bind def
/p0_8 {
newpath
translate

} bind def
/p0_9 {
newpath
translate

} bind def
/p0_a {
newpath
translate
359.68 208.026 m
359.68 259.365 l
} bind def
/p0_b {
newpath
translate
287.76 240.567 m
287.76 282.433 l
} bind def
/p0_c {
newpath
translate
244.608 258.764 m
244.608 292.012 l
} bind def
/p0_d {
newpath
translate
215.84 282.507 m
215.84 317.655 l
} bind def
/p0_e {
newpath
translate

} bind def
/p0_f {
newpath
translate
456.4 201.792 m
456.4 259.588 l
} bind def
/p0_10 {
newpath
translate
360.3 232.378 m
360.3 272.693 l
} bind def
/p0_11 {
newpath
translate
302.64 253.137 m
302.64 288.456 l
} bind def
/p0_12 {
newpath
translate
264.2 261.447 m
264.2 304.74 l
} bind def
/p0_13 {
newpath
translate

} bind def
1.000 setlinewidth
1 setlinejoin
0 setlinecap
[] 0 setdash
0.000 0.000 1.000 setrgbcolor
gsave
446.4 345.6 72 43.2 clipbox
0 0 p0_0
stroke
grestore
gsave
446.4 345.6 72 43.2 clipbox
0 0 p0_1
stroke
grestore
gsave
446.4 345.6 72 43.2 clipbox
0 0 p0_2
stroke
grestore
gsave
446.4 345.6 72 43.2 clipbox
0 0 p0_3
stroke
grestore
gsave
446.4 345.6 72 43.2 clipbox
0 0 p0_4
stroke
grestore
gsave
446.4 345.6 72 43.2 clipbox
0 0 p0_5
stroke
grestore
gsave
446.4 345.6 72 43.2 clipbox
0 0 p0_6
stroke
grestore
gsave
446.4 345.6 72 43.2 clipbox
0 0 p0_7
stroke
grestore
gsave
446.4 345.6 72 43.2 clipbox
0 0 p0_8
stroke
grestore
gsave
446.4 345.6 72 43.2 clipbox
0 0 p0_9
stroke
grestore
gsave
446.4 345.6 72 43.2 clipbox
0 0 p0_a
stroke
grestore
gsave
446.4 345.6 72 43.2 clipbox
0 0 p0_b
stroke
grestore
gsave
446.4 345.6 72 43.2 clipbox
0 0 p0_c
stroke
grestore
gsave
446.4 345.6 72 43.2 clipbox
0 0 p0_d
stroke
grestore
gsave
446.4 345.6 72 43.2 clipbox
0 0 p0_e
stroke
grestore
gsave
446.4 345.6 72 43.2 clipbox
0 0 p0_f
stroke
grestore
gsave
446.4 345.6 72 43.2 clipbox
0 0 p0_10
stroke
grestore
gsave
446.4 345.6 72 43.2 clipbox
0 0 p0_11
stroke
grestore
gsave
446.4 345.6 72 43.2 clipbox
0 0 p0_12
stroke
grestore
gsave
446.4 345.6 72 43.2 clipbox
0 0 p0_13
stroke
grestore
/p1_0 {
newpath
translate

} bind def
/p1_1 {
newpath
translate

} bind def
/p1_2 {
newpath
translate
110.688 234.582 m
110.688 265.727 l
} bind def
/p1_3 {
newpath
translate

} bind def
/p1_4 {
newpath
translate

} bind def
/p1_5 {
newpath
translate

} bind def
/p1_6 {
newpath
translate
183.6 240.985 m
183.6 254.871 l
} bind def
/p1_7 {
newpath
translate
161.28 235.938 m
161.28 248.896 l
} bind def
/p1_8 {
newpath
translate
146.4 237.769 m
146.4 277.464 l
} bind def
/p1_9 {
newpath
translate
135.771 238.637 m
135.771 274.635 l
} bind def
/p1_a {
newpath
translate

} bind def
/p1_b {
newpath
translate
287.76 232.79 m
287.76 249.337 l
} bind def
/p1_c {
newpath
translate
244.608 230.716 m
244.608 240.727 l
} bind def
/p1_d {
newpath
translate
215.84 234.763 m
215.84 263.964 l
} bind def
/p1_e {
newpath
translate
195.291 237.512 m
195.291 270.118 l
} bind def
/p1_f {
newpath
translate

} bind def
/p1_10 {
newpath
translate
360.3 228.502 m
360.3 244.786 l
} bind def
/p1_11 {
newpath
translate
302.64 225.828 m
302.64 238.324 l
} bind def
/p1_12 {
newpath
translate
264.2 236.531 m
264.2 255.341 l
} bind def
/p1_13 {
newpath
translate
236.743 236.964 m
236.743 263.243 l
} bind def
1.000 0.000 0.000 setrgbcolor
gsave
446.4 345.6 72 43.2 clipbox
0 0 p1_0
stroke
grestore
gsave
446.4 345.6 72 43.2 clipbox
0 0 p1_1
stroke
grestore
gsave
446.4 345.6 72 43.2 clipbox
0 0 p1_2
stroke
grestore
gsave
446.4 345.6 72 43.2 clipbox
0 0 p1_3
stroke
grestore
gsave
446.4 345.6 72 43.2 clipbox
0 0 p1_4
stroke
grestore
gsave
446.4 345.6 72 43.2 clipbox
0 0 p1_5
stroke
grestore
gsave
446.4 345.6 72 43.2 clipbox
0 0 p1_6
stroke
grestore
gsave
446.4 345.6 72 43.2 clipbox
0 0 p1_7
stroke
grestore
gsave
446.4 345.6 72 43.2 clipbox
0 0 p1_8
stroke
grestore
gsave
446.4 345.6 72 43.2 clipbox
0 0 p1_9
stroke
grestore
gsave
446.4 345.6 72 43.2 clipbox
0 0 p1_a
stroke
grestore
gsave
446.4 345.6 72 43.2 clipbox
0 0 p1_b
stroke
grestore
gsave
446.4 345.6 72 43.2 clipbox
0 0 p1_c
stroke
grestore
gsave
446.4 345.6 72 43.2 clipbox
0 0 p1_d
stroke
grestore
gsave
446.4 345.6 72 43.2 clipbox
0 0 p1_e
stroke
grestore
gsave
446.4 345.6 72 43.2 clipbox
0 0 p1_f
stroke
grestore
gsave
446.4 345.6 72 43.2 clipbox
0 0 p1_10
stroke
grestore
gsave
446.4 345.6 72 43.2 clipbox
0 0 p1_11
stroke
grestore
gsave
446.4 345.6 72 43.2 clipbox
0 0 p1_12
stroke
grestore
gsave
446.4 345.6 72 43.2 clipbox
0 0 p1_13
stroke
grestore
/p2_0 {
newpath
translate
136.48 234.3 m
136.48 258.959 l
} bind def
/p2_1 {
newpath
translate
120.36 237.447 m
120.36 260.378 l
} bind def
/p2_2 {
newpath
translate
110.688 229.26 m
110.688 252.952 l
} bind def
/p2_3 {
newpath
translate
104.24 228.734 m
104.24 254.023 l
} bind def
/p2_4 {
newpath
translate

} bind def
/p2_5 {
newpath
translate
220.8 228.366 m
220.8 243.375 l
} bind def
/p2_6 {
newpath
translate
183.6 229.414 m
183.6 252.564 l
} bind def
/p2_7 {
newpath
translate
161.28 229.198 m
161.28 247.37 l
} bind def
/p2_8 {
newpath
translate
146.4 227.768 m
146.4 249.607 l
} bind def
/p2_9 {
newpath
translate
135.771 221.016 m
135.771 241.912 l
} bind def
/p2_a {
newpath
translate
359.68 222.472 m
359.68 244.358 l
} bind def
/p2_b {
newpath
translate
287.76 232.115 m
287.76 244.264 l
} bind def
/p2_c {
newpath
translate
244.608 231.971 m
244.608 240.659 l
} bind def
/p2_d {
newpath
translate
215.84 231.067 m
215.84 242.202 l
} bind def
/p2_e {
newpath
translate
195.291 222.884 m
195.291 237.266 l
} bind def
/p2_f {
newpath
translate
456.4 223.243 m
456.4 239.776 l
} bind def
/p2_10 {
newpath
translate
360.3 230.009 m
360.3 242.195 l
} bind def
/p2_11 {
newpath
translate
302.64 226.626 m
302.64 240.32 l
} bind def
/p2_12 {
newpath
translate
264.2 229.438 m
264.2 241.485 l
} bind def
/p2_13 {
newpath
translate
236.743 223.463 m
236.743 231.235 l
} bind def
0.000 setgray
gsave
446.4 345.6 72 43.2 clipbox
0 0 p2_0
stroke
grestore
gsave
446.4 345.6 72 43.2 clipbox
0 0 p2_1
stroke
grestore
gsave
446.4 345.6 72 43.2 clipbox
0 0 p2_2
stroke
grestore
gsave
446.4 345.6 72 43.2 clipbox
0 0 p2_3
stroke
grestore
gsave
446.4 345.6 72 43.2 clipbox
0 0 p2_4
stroke
grestore
gsave
446.4 345.6 72 43.2 clipbox
0 0 p2_5
stroke
grestore
gsave
446.4 345.6 72 43.2 clipbox
0 0 p2_6
stroke
grestore
gsave
446.4 345.6 72 43.2 clipbox
0 0 p2_7
stroke
grestore
gsave
446.4 345.6 72 43.2 clipbox
0 0 p2_8
stroke
grestore
gsave
446.4 345.6 72 43.2 clipbox
0 0 p2_9
stroke
grestore
gsave
446.4 345.6 72 43.2 clipbox
0 0 p2_a
stroke
grestore
gsave
446.4 345.6 72 43.2 clipbox
0 0 p2_b
stroke
grestore
gsave
446.4 345.6 72 43.2 clipbox
0 0 p2_c
stroke
grestore
gsave
446.4 345.6 72 43.2 clipbox
0 0 p2_d
stroke
grestore
gsave
446.4 345.6 72 43.2 clipbox
0 0 p2_e
stroke
grestore
gsave
446.4 345.6 72 43.2 clipbox
0 0 p2_f
stroke
grestore
gsave
446.4 345.6 72 43.2 clipbox
0 0 p2_10
stroke
grestore
gsave
446.4 345.6 72 43.2 clipbox
0 0 p2_11
stroke
grestore
gsave
446.4 345.6 72 43.2 clipbox
0 0 p2_12
stroke
grestore
gsave
446.4 345.6 72 43.2 clipbox
0 0 p2_13
stroke
grestore
/p3_0 {
newpath
translate
136.48 219.019 m
136.48 240.608 l
} bind def
/p3_1 {
newpath
translate
120.36 222.817 m
120.36 241.761 l
} bind def
/p3_2 {
newpath
translate
110.688 221.767 m
110.688 241.41 l
} bind def
/p3_3 {
newpath
translate
104.24 215.527 m
104.24 236.476 l
} bind def
/p3_4 {
newpath
translate
99.6343 217.41 m
99.6343 237.036 l
} bind def
/p3_5 {
newpath
translate
220.8 222.326 m
220.8 237.733 l
} bind def
/p3_6 {
newpath
translate
183.6 225.278 m
183.6 234.434 l
} bind def
/p3_7 {
newpath
translate
161.28 219.526 m
161.28 237 l
} bind def
/p3_8 {
newpath
translate
146.4 215.508 m
146.4 230.724 l
} bind def
/p3_9 {
newpath
translate
135.771 215.126 m
135.771 232.617 l
} bind def
/p3_a {
newpath
translate
359.68 221.007 m
359.68 234.891 l
} bind def
/p3_b {
newpath
translate
287.76 222.284 m
287.76 236.19 l
} bind def
/p3_c {
newpath
translate
244.608 222.584 m
244.608 231.92 l
} bind def
/p3_d {
newpath
translate
215.84 217.193 m
215.84 226.674 l
} bind def
/p3_e {
newpath
translate
195.291 214.582 m
195.291 230.111 l
} bind def
/p3_f {
newpath
translate
456.4 221.043 m
456.4 234.105 l
} bind def
/p3_10 {
newpath
translate
360.3 221.277 m
360.3 232.81 l
} bind def
/p3_11 {
newpath
translate
302.64 217.031 m
302.64 234.126 l
} bind def
/p3_12 {
newpath
translate
264.2 214.379 m
264.2 226.177 l
} bind def
/p3_13 {
newpath
translate
236.743 215.336 m
236.743 227.153 l
} bind def
0.000 0.502 0.000 setrgbcolor
gsave
446.4 345.6 72 43.2 clipbox
0 0 p3_0
stroke
grestore
gsave
446.4 345.6 72 43.2 clipbox
0 0 p3_1
stroke
grestore
gsave
446.4 345.6 72 43.2 clipbox
0 0 p3_2
stroke
grestore
gsave
446.4 345.6 72 43.2 clipbox
0 0 p3_3
stroke
grestore
gsave
446.4 345.6 72 43.2 clipbox
0 0 p3_4
stroke
grestore
gsave
446.4 345.6 72 43.2 clipbox
0 0 p3_5
stroke
grestore
gsave
446.4 345.6 72 43.2 clipbox
0 0 p3_6
stroke
grestore
gsave
446.4 345.6 72 43.2 clipbox
0 0 p3_7
stroke
grestore
gsave
446.4 345.6 72 43.2 clipbox
0 0 p3_8
stroke
grestore
gsave
446.4 345.6 72 43.2 clipbox
0 0 p3_9
stroke
grestore
gsave
446.4 345.6 72 43.2 clipbox
0 0 p3_a
stroke
grestore
gsave
446.4 345.6 72 43.2 clipbox
0 0 p3_b
stroke
grestore
gsave
446.4 345.6 72 43.2 clipbox
0 0 p3_c
stroke
grestore
gsave
446.4 345.6 72 43.2 clipbox
0 0 p3_d
stroke
grestore
gsave
446.4 345.6 72 43.2 clipbox
0 0 p3_e
stroke
grestore
gsave
446.4 345.6 72 43.2 clipbox
0 0 p3_f
stroke
grestore
gsave
446.4 345.6 72 43.2 clipbox
0 0 p3_10
stroke
grestore
gsave
446.4 345.6 72 43.2 clipbox
0 0 p3_11
stroke
grestore
gsave
446.4 345.6 72 43.2 clipbox
0 0 p3_12
stroke
grestore
gsave
446.4 345.6 72 43.2 clipbox
0 0 p3_13
stroke
grestore
/p4_0 {
newpath
translate
136.48 218.867 m
136.48 230.601 l
} bind def
/p4_1 {
newpath
translate
120.36 224.983 m
120.36 239.189 l
} bind def
/p4_2 {
newpath
translate
110.688 218.224 m
110.688 234.967 l
} bind def
/p4_3 {
newpath
translate
104.24 214.868 m
104.24 231.624 l
} bind def
/p4_4 {
newpath
translate
99.6343 211.773 m
99.6343 231.14 l
} bind def
/p4_5 {
newpath
translate
220.8 217.803 m
220.8 231.518 l
} bind def
/p4_6 {
newpath
translate
183.6 224.428 m
183.6 235.73 l
} bind def
/p4_7 {
newpath
translate
161.28 217.842 m
161.28 230.747 l
} bind def
/p4_8 {
newpath
translate
146.4 213.774 m
146.4 228.513 l
} bind def
/p4_9 {
newpath
translate
135.771 209.762 m
135.771 227.354 l
} bind def
/p4_a {
newpath
translate
359.68 216.062 m
359.68 229.476 l
} bind def
/p4_b {
newpath
translate
287.76 222.373 m
287.76 236.405 l
} bind def
/p4_c {
newpath
translate
244.608 215.273 m
244.608 232.281 l
} bind def
/p4_d {
newpath
translate
215.84 214.667 m
215.84 225.998 l
} bind def
/p4_e {
newpath
translate
195.291 213.546 m
195.291 222.947 l
} bind def
/p4_f {
newpath
translate
456.4 213.707 m
456.4 229.574 l
} bind def
/p4_10 {
newpath
translate
360.3 222.077 m
360.3 233.917 l
} bind def
/p4_11 {
newpath
translate
302.64 213.675 m
302.64 231.794 l
} bind def
/p4_12 {
newpath
translate
264.2 211.873 m
264.2 226.004 l
} bind def
/p4_13 {
newpath
translate
236.743 209.025 m
236.743 224.847 l
} bind def
0.000 1.000 1.000 setrgbcolor
gsave
446.4 345.6 72 43.2 clipbox
0 0 p4_0
stroke
grestore
gsave
446.4 345.6 72 43.2 clipbox
0 0 p4_1
stroke
grestore
gsave
446.4 345.6 72 43.2 clipbox
0 0 p4_2
stroke
grestore
gsave
446.4 345.6 72 43.2 clipbox
0 0 p4_3
stroke
grestore
gsave
446.4 345.6 72 43.2 clipbox
0 0 p4_4
stroke
grestore
gsave
446.4 345.6 72 43.2 clipbox
0 0 p4_5
stroke
grestore
gsave
446.4 345.6 72 43.2 clipbox
0 0 p4_6
stroke
grestore
gsave
446.4 345.6 72 43.2 clipbox
0 0 p4_7
stroke
grestore
gsave
446.4 345.6 72 43.2 clipbox
0 0 p4_8
stroke
grestore
gsave
446.4 345.6 72 43.2 clipbox
0 0 p4_9
stroke
grestore
gsave
446.4 345.6 72 43.2 clipbox
0 0 p4_a
stroke
grestore
gsave
446.4 345.6 72 43.2 clipbox
0 0 p4_b
stroke
grestore
gsave
446.4 345.6 72 43.2 clipbox
0 0 p4_c
stroke
grestore
gsave
446.4 345.6 72 43.2 clipbox
0 0 p4_d
stroke
grestore
gsave
446.4 345.6 72 43.2 clipbox
0 0 p4_e
stroke
grestore
gsave
446.4 345.6 72 43.2 clipbox
0 0 p4_f
stroke
grestore
gsave
446.4 345.6 72 43.2 clipbox
0 0 p4_10
stroke
grestore
gsave
446.4 345.6 72 43.2 clipbox
0 0 p4_11
stroke
grestore
gsave
446.4 345.6 72 43.2 clipbox
0 0 p4_12
stroke
grestore
gsave
446.4 345.6 72 43.2 clipbox
0 0 p4_13
stroke
grestore
0.500 setlinewidth
0.000 0.000 1.000 setrgbcolor
gsave
446.4 345.6 72 43.2 clipbox
/o {
gsave
newpath
translate
0.5 setlinewidth
1 setlinejoin
0 setlinecap
3 -1.83697e-16 m
-3 1.83697e-16 l
gsave
0.000 0.000 1.000 setrgbcolor
fill
grestore
stroke
grestore
} bind def
136.48 237.189 o
120.36 284.119 o
220.8 218.199 o
183.6 255.455 o
161.28 282.707 o
359.68 208.026 o
287.76 240.567 o
244.608 258.764 o
215.84 282.507 o
456.4 201.792 o
360.3 232.378 o
302.64 253.137 o
264.2 261.447 o
grestore
gsave
446.4 345.6 72 43.2 clipbox
/o {
gsave
newpath
translate
0.5 setlinewidth
1 setlinejoin
0 setlinecap
3 -1.83697e-16 m
-3 1.83697e-16 l
gsave
0.000 0.000 1.000 setrgbcolor
fill
grestore
stroke
grestore
} bind def
136.48 284.938 o
120.36 320.805 o
220.8 266.326 o
183.6 296.357 o
161.28 316.885 o
359.68 259.365 o
287.76 282.433 o
244.608 292.012 o
215.84 317.655 o
456.4 259.588 o
360.3 272.693 o
302.64 288.456 o
264.2 304.74 o
grestore
0.000 setgray
gsave
446.4 345.6 72 43.2 clipbox
/o {
gsave
newpath
translate
0.5 setlinewidth
1 setlinejoin
0 setlinecap
0 -3.5 m
0.928211 -3.5 1.81853 -3.13122 2.47487 -2.47487 c
3.13122 -1.81853 3.5 -0.928211 3.5 0 c
3.5 0.928211 3.13122 1.81853 2.47487 2.47487 c
1.81853 3.13122 0.928211 3.5 0 3.5 c
-0.928211 3.5 -1.81853 3.13122 -2.47487 2.47487 c
-3.13122 1.81853 -3.5 0.928211 -3.5 0 c
-3.5 -0.928211 -3.13122 -1.81853 -2.47487 -2.47487 c
-1.81853 -3.13122 -0.928211 -3.5 0 -3.5 c
cl
gsave
0.000 0.000 1.000 setrgbcolor
fill
grestore
stroke
grestore
} bind def
136.48 261.064 o
120.36 302.462 o
220.8 242.262 o
183.6 275.906 o
161.28 299.796 o
359.68 233.695 o
287.76 261.5 o
244.608 275.388 o
215.84 300.081 o
456.4 230.69 o
360.3 252.535 o
302.64 270.796 o
264.2 283.093 o
grestore
1.000 0.000 0.000 setrgbcolor
gsave
446.4 345.6 72 43.2 clipbox
/o {
gsave
newpath
translate
0.5 setlinewidth
1 setlinejoin
0 setlinecap
3 -1.83697e-16 m
-3 1.83697e-16 l
gsave
1.000 0.000 0.000 setrgbcolor
fill
grestore
stroke
grestore
} bind def
110.688 234.582 o
183.6 240.985 o
161.28 235.938 o
146.4 237.769 o
135.771 238.637 o
287.76 232.79 o
244.608 230.716 o
215.84 234.763 o
195.291 237.512 o
360.3 228.502 o
302.64 225.828 o
264.2 236.531 o
236.743 236.964 o
grestore
gsave
446.4 345.6 72 43.2 clipbox
/o {
gsave
newpath
translate
0.5 setlinewidth
1 setlinejoin
0 setlinecap
3 -1.83697e-16 m
-3 1.83697e-16 l
gsave
1.000 0.000 0.000 setrgbcolor
fill
grestore
stroke
grestore
} bind def
110.688 265.727 o
183.6 254.871 o
161.28 248.896 o
146.4 277.464 o
135.771 274.635 o
287.76 249.337 o
244.608 240.727 o
215.84 263.964 o
195.291 270.118 o
360.3 244.786 o
302.64 238.324 o
264.2 255.341 o
236.743 263.243 o
grestore
0.000 setgray
gsave
446.4 345.6 72 43.2 clipbox
/o {
gsave
newpath
translate
0.5 setlinewidth
1 setlinejoin
0 setlinecap
0 -3.5 m
0.928211 -3.5 1.81853 -3.13122 2.47487 -2.47487 c
3.13122 -1.81853 3.5 -0.928211 3.5 0 c
3.5 0.928211 3.13122 1.81853 2.47487 2.47487 c
1.81853 3.13122 0.928211 3.5 0 3.5 c
-0.928211 3.5 -1.81853 3.13122 -2.47487 2.47487 c
-3.13122 1.81853 -3.5 0.928211 -3.5 0 c
-3.5 -0.928211 -3.13122 -1.81853 -2.47487 -2.47487 c
-1.81853 -3.13122 -0.928211 -3.5 0 -3.5 c
cl
gsave
1.000 0.000 0.000 setrgbcolor
fill
grestore
stroke
grestore
} bind def
110.688 250.154 o
183.6 247.928 o
161.28 242.417 o
146.4 257.616 o
135.771 256.636 o
287.76 241.064 o
244.608 235.722 o
215.84 249.364 o
195.291 253.815 o
360.3 236.644 o
302.64 232.076 o
264.2 245.936 o
236.743 250.103 o
grestore
gsave
446.4 345.6 72 43.2 clipbox
/o {
gsave
newpath
translate
0.5 setlinewidth
1 setlinejoin
0 setlinecap
3 -1.83697e-16 m
-3 1.83697e-16 l
gsave
0.000 setgray
fill
grestore
stroke
grestore
} bind def
136.48 234.3 o
120.36 237.447 o
110.688 229.26 o
104.24 228.734 o
220.8 228.366 o
183.6 229.414 o
161.28 229.198 o
146.4 227.768 o
135.771 221.016 o
359.68 222.472 o
287.76 232.115 o
244.608 231.971 o
215.84 231.067 o
195.291 222.884 o
456.4 223.243 o
360.3 230.009 o
302.64 226.626 o
264.2 229.438 o
236.743 223.463 o
grestore
gsave
446.4 345.6 72 43.2 clipbox
/o {
gsave
newpath
translate
0.5 setlinewidth
1 setlinejoin
0 setlinecap
3 -1.83697e-16 m
-3 1.83697e-16 l
gsave
0.000 setgray
fill
grestore
stroke
grestore
} bind def
136.48 258.959 o
120.36 260.378 o
110.688 252.952 o
104.24 254.023 o
220.8 243.375 o
183.6 252.564 o
161.28 247.37 o
146.4 249.607 o
135.771 241.912 o
359.68 244.358 o
287.76 244.264 o
244.608 240.659 o
215.84 242.202 o
195.291 237.266 o
456.4 239.776 o
360.3 242.195 o
302.64 240.32 o
264.2 241.485 o
236.743 231.235 o
grestore
gsave
446.4 345.6 72 43.2 clipbox
/o {
gsave
newpath
translate
0.5 setlinewidth
1 setlinejoin
0 setlinecap
0 -3.5 m
0.928211 -3.5 1.81853 -3.13122 2.47487 -2.47487 c
3.13122 -1.81853 3.5 -0.928211 3.5 0 c
3.5 0.928211 3.13122 1.81853 2.47487 2.47487 c
1.81853 3.13122 0.928211 3.5 0 3.5 c
-0.928211 3.5 -1.81853 3.13122 -2.47487 2.47487 c
-3.13122 1.81853 -3.5 0.928211 -3.5 0 c
-3.5 -0.928211 -3.13122 -1.81853 -2.47487 -2.47487 c
-1.81853 -3.13122 -0.928211 -3.5 0 -3.5 c
cl
gsave
0.000 setgray
fill
grestore
stroke
grestore
} bind def
136.48 246.629 o
120.36 248.912 o
110.688 241.106 o
104.24 241.379 o
220.8 235.87 o
183.6 240.989 o
161.28 238.284 o
146.4 238.688 o
135.771 231.464 o
359.68 233.415 o
287.76 238.189 o
244.608 236.315 o
215.84 236.635 o
195.291 230.075 o
456.4 231.51 o
360.3 236.102 o
302.64 233.473 o
264.2 235.461 o
236.743 227.349 o
grestore
0.000 0.502 0.000 setrgbcolor
gsave
446.4 345.6 72 43.2 clipbox
/o {
gsave
newpath
translate
0.5 setlinewidth
1 setlinejoin
0 setlinecap
3 -1.83697e-16 m
-3 1.83697e-16 l
gsave
0.000 0.502 0.000 setrgbcolor
fill
grestore
stroke
grestore
} bind def
136.48 219.019 o
120.36 222.817 o
110.688 221.767 o
104.24 215.527 o
99.6343 217.41 o
220.8 222.326 o
183.6 225.278 o
161.28 219.526 o
146.4 215.508 o
135.771 215.126 o
359.68 221.007 o
287.76 222.284 o
244.608 222.584 o
215.84 217.193 o
195.291 214.582 o
456.4 221.043 o
360.3 221.277 o
302.64 217.031 o
264.2 214.379 o
236.743 215.336 o
grestore
gsave
446.4 345.6 72 43.2 clipbox
/o {
gsave
newpath
translate
0.5 setlinewidth
1 setlinejoin
0 setlinecap
3 -1.83697e-16 m
-3 1.83697e-16 l
gsave
0.000 0.502 0.000 setrgbcolor
fill
grestore
stroke
grestore
} bind def
136.48 240.608 o
120.36 241.761 o
110.688 241.41 o
104.24 236.476 o
99.6343 237.036 o
220.8 237.733 o
183.6 234.434 o
161.28 237 o
146.4 230.724 o
135.771 232.617 o
359.68 234.891 o
287.76 236.19 o
244.608 231.92 o
215.84 226.674 o
195.291 230.111 o
456.4 234.105 o
360.3 232.81 o
302.64 234.126 o
264.2 226.177 o
236.743 227.153 o
grestore
0.000 setgray
gsave
446.4 345.6 72 43.2 clipbox
/o {
gsave
newpath
translate
0.5 setlinewidth
1 setlinejoin
0 setlinecap
0 -3.5 m
0.928211 -3.5 1.81853 -3.13122 2.47487 -2.47487 c
3.13122 -1.81853 3.5 -0.928211 3.5 0 c
3.5 0.928211 3.13122 1.81853 2.47487 2.47487 c
1.81853 3.13122 0.928211 3.5 0 3.5 c
-0.928211 3.5 -1.81853 3.13122 -2.47487 2.47487 c
-3.13122 1.81853 -3.5 0.928211 -3.5 0 c
-3.5 -0.928211 -3.13122 -1.81853 -2.47487 -2.47487 c
-1.81853 -3.13122 -0.928211 -3.5 0 -3.5 c
cl
gsave
0.000 0.502 0.000 setrgbcolor
fill
grestore
stroke
grestore
} bind def
136.48 229.813 o
120.36 232.289 o
110.688 231.589 o
104.24 226.001 o
99.6343 227.223 o
220.8 230.03 o
183.6 229.856 o
161.28 228.263 o
146.4 223.116 o
135.771 223.872 o
359.68 227.949 o
287.76 229.237 o
244.608 227.252 o
215.84 221.933 o
195.291 222.347 o
456.4 227.574 o
360.3 227.043 o
302.64 225.578 o
264.2 220.278 o
236.743 221.245 o
grestore
0.000 1.000 1.000 setrgbcolor
gsave
446.4 345.6 72 43.2 clipbox
/o {
gsave
newpath
translate
0.5 setlinewidth
1 setlinejoin
0 setlinecap
3 -1.83697e-16 m
-3 1.83697e-16 l
gsave
0.000 1.000 1.000 setrgbcolor
fill
grestore
stroke
grestore
} bind def
136.48 218.867 o
120.36 224.983 o
110.688 218.224 o
104.24 214.868 o
99.6343 211.773 o
220.8 217.803 o
183.6 224.428 o
161.28 217.842 o
146.4 213.774 o
135.771 209.762 o
359.68 216.062 o
287.76 222.373 o
244.608 215.273 o
215.84 214.667 o
195.291 213.546 o
456.4 213.707 o
360.3 222.077 o
302.64 213.675 o
264.2 211.873 o
236.743 209.025 o
grestore
gsave
446.4 345.6 72 43.2 clipbox
/o {
gsave
newpath
translate
0.5 setlinewidth
1 setlinejoin
0 setlinecap
3 -1.83697e-16 m
-3 1.83697e-16 l
gsave
0.000 1.000 1.000 setrgbcolor
fill
grestore
stroke
grestore
} bind def
136.48 230.601 o
120.36 239.189 o
110.688 234.967 o
104.24 231.624 o
99.6343 231.14 o
220.8 231.518 o
183.6 235.73 o
161.28 230.747 o
146.4 228.513 o
135.771 227.354 o
359.68 229.476 o
287.76 236.405 o
244.608 232.281 o
215.84 225.998 o
195.291 222.947 o
456.4 229.574 o
360.3 233.917 o
302.64 231.794 o
264.2 226.004 o
236.743 224.847 o
grestore
0.000 setgray
gsave
446.4 345.6 72 43.2 clipbox
/o {
gsave
newpath
translate
0.5 setlinewidth
1 setlinejoin
0 setlinecap
0 -3.5 m
0.928211 -3.5 1.81853 -3.13122 2.47487 -2.47487 c
3.13122 -1.81853 3.5 -0.928211 3.5 0 c
3.5 0.928211 3.13122 1.81853 2.47487 2.47487 c
1.81853 3.13122 0.928211 3.5 0 3.5 c
-0.928211 3.5 -1.81853 3.13122 -2.47487 2.47487 c
-3.13122 1.81853 -3.5 0.928211 -3.5 0 c
-3.5 -0.928211 -3.13122 -1.81853 -2.47487 -2.47487 c
-1.81853 -3.13122 -0.928211 -3.5 0 -3.5 c
cl
gsave
0.000 1.000 1.000 setrgbcolor
fill
grestore
stroke
grestore
} bind def
136.48 224.734 o
120.36 232.086 o
110.688 226.596 o
104.24 223.246 o
99.6343 221.456 o
220.8 224.66 o
183.6 230.079 o
161.28 224.295 o
146.4 221.144 o
135.771 218.558 o
359.68 222.769 o
287.76 229.389 o
244.608 223.777 o
215.84 220.332 o
195.291 218.247 o
456.4 221.641 o
360.3 227.997 o
302.64 222.734 o
264.2 218.938 o
236.743 216.936 o
grestore
gsave
/o {
gsave
newpath
translate
0.5 setlinewidth
1 setlinejoin
0 setlinecap
0 0 m
0 4 l
gsave
0.000 setgray
fill
grestore
stroke
grestore
} bind def
72 43.2 o
grestore
gsave
/o {
gsave
newpath
translate
0.5 setlinewidth
1 setlinejoin
0 setlinecap
0 0 m
0 -4 l
gsave
0.000 setgray
fill
grestore
stroke
grestore
} bind def
72 388.8 o
grestore
/BitstreamVeraSans-Roman findfont
12.000 scalefont
setfont
gsave
59.429688 30.121875 translate
0.000000 rotate
0.000000 0.171875 m /zero glyphshow
7.634766 0.171875 m /period glyphshow
11.449219 0.171875 m /zero glyphshow
19.083984 0.171875 m /zero glyphshow
grestore
gsave
/o {
gsave
newpath
translate
0.5 setlinewidth
1 setlinejoin
0 setlinecap
0 0 m
0 4 l
gsave
0.000 setgray
fill
grestore
stroke
grestore
} bind def
146.4 43.2 o
grestore
gsave
/o {
gsave
newpath
translate
0.5 setlinewidth
1 setlinejoin
0 setlinecap
0 0 m
0 -4 l
gsave
0.000 setgray
fill
grestore
stroke
grestore
} bind def
146.4 388.8 o
grestore
gsave
133.954688 30.121875 translate
0.000000 rotate
0.000000 0.171875 m /zero glyphshow
7.634766 0.171875 m /period glyphshow
11.449219 0.171875 m /zero glyphshow
19.083984 0.171875 m /five glyphshow
grestore
gsave
/o {
gsave
newpath
translate
0.5 setlinewidth
1 setlinejoin
0 setlinecap
0 0 m
0 4 l
gsave
0.000 setgray
fill
grestore
stroke
grestore
} bind def
220.8 43.2 o
grestore
gsave
/o {
gsave
newpath
translate
0.5 setlinewidth
1 setlinejoin
0 setlinecap
0 0 m
0 -4 l
gsave
0.000 setgray
fill
grestore
stroke
grestore
} bind def
220.8 388.8 o
grestore
gsave
208.229688 30.121875 translate
0.000000 rotate
0.000000 0.171875 m /zero glyphshow
7.634766 0.171875 m /period glyphshow
11.449219 0.171875 m /one glyphshow
19.083984 0.171875 m /zero glyphshow
grestore
gsave
/o {
gsave
newpath
translate
0.5 setlinewidth
1 setlinejoin
0 setlinecap
0 0 m
0 4 l
gsave
0.000 setgray
fill
grestore
stroke
grestore
} bind def
295.2 43.2 o
grestore
gsave
/o {
gsave
newpath
translate
0.5 setlinewidth
1 setlinejoin
0 setlinecap
0 0 m
0 -4 l
gsave
0.000 setgray
fill
grestore
stroke
grestore
} bind def
295.2 388.8 o
grestore
gsave
282.754688 30.121875 translate
0.000000 rotate
0.000000 0.171875 m /zero glyphshow
7.634766 0.171875 m /period glyphshow
11.449219 0.171875 m /one glyphshow
19.083984 0.171875 m /five glyphshow
grestore
gsave
/o {
gsave
newpath
translate
0.5 setlinewidth
1 setlinejoin
0 setlinecap
0 0 m
0 4 l
gsave
0.000 setgray
fill
grestore
stroke
grestore
} bind def
369.6 43.2 o
grestore
gsave
/o {
gsave
newpath
translate
0.5 setlinewidth
1 setlinejoin
0 setlinecap
0 0 m
0 -4 l
gsave
0.000 setgray
fill
grestore
stroke
grestore
} bind def
369.6 388.8 o
grestore
gsave
357.029688 30.121875 translate
0.000000 rotate
0.000000 0.171875 m /zero glyphshow
7.634766 0.171875 m /period glyphshow
11.449219 0.171875 m /two glyphshow
19.083984 0.171875 m /zero glyphshow
grestore
gsave
/o {
gsave
newpath
translate
0.5 setlinewidth
1 setlinejoin
0 setlinecap
0 0 m
0 4 l
gsave
0.000 setgray
fill
grestore
stroke
grestore
} bind def
444 43.2 o
grestore
gsave
/o {
gsave
newpath
translate
0.5 setlinewidth
1 setlinejoin
0 setlinecap
0 0 m
0 -4 l
gsave
0.000 setgray
fill
grestore
stroke
grestore
} bind def
444 388.8 o
grestore
gsave
431.554688 30.121875 translate
0.000000 rotate
0.000000 0.171875 m /zero glyphshow
7.634766 0.171875 m /period glyphshow
11.449219 0.171875 m /two glyphshow
19.083984 0.171875 m /five glyphshow
grestore
/BitstreamVeraSans-Roman findfont
15.000 scalefont
setfont
gsave
241.840625 10.606250 translate
0.000000 rotate
0.000000 3.125000 m /space glyphshow
4.768066 3.125000 m /q glyphshow
14.289551 3.125000 m /slash glyphshow
19.343262 3.125000 m /w glyphshow
31.611328 3.125000 m /space glyphshow
36.379395 3.125000 m /parenleft glyphshow
42.231445 3.125000 m /m glyphshow
56.843262 3.125000 m /l glyphshow
61.010742 3.125000 m /slash glyphshow
66.064453 3.125000 m /c glyphshow
74.311523 3.125000 m /m glyphshow
88.923340 3.125000 m /hyphen glyphshow
94.335938 3.125000 m /s glyphshow
102.150879 3.125000 m /parenright glyphshow
108.002930 3.125000 m /space glyphshow
grestore
gsave
/o {
gsave
newpath
translate
0.5 setlinewidth
1 setlinejoin
0 setlinecap
0 0 m
4 0 l
gsave
0.000 setgray
fill
grestore
stroke
grestore
} bind def
72 43.2 o
grestore
gsave
/o {
gsave
newpath
translate
0.5 setlinewidth
1 setlinejoin
0 setlinecap
0 0 m
-4 0 l
gsave
0.000 setgray
fill
grestore
stroke
grestore
} bind def
518.4 43.2 o
grestore
/BitstreamVeraSans-Roman findfont
12.000 scalefont
setfont
gsave
42.859375 38.660937 translate
0.000000 rotate
0.000000 0.171875 m /zero glyphshow
7.634766 0.171875 m /period glyphshow
11.449219 0.171875 m /zero glyphshow
19.083984 0.171875 m /zero glyphshow
grestore
gsave
/o {
gsave
newpath
translate
0.5 setlinewidth
1 setlinejoin
0 setlinecap
0 0 m
4 0 l
gsave
0.000 setgray
fill
grestore
stroke
grestore
} bind def
72 112.32 o
grestore
gsave
/o {
gsave
newpath
translate
0.5 setlinewidth
1 setlinejoin
0 setlinecap
0 0 m
-4 0 l
gsave
0.000 setgray
fill
grestore
stroke
grestore
} bind def
518.4 112.32 o
grestore
gsave
43.171875 107.780937 translate
0.000000 rotate
0.000000 0.171875 m /zero glyphshow
7.634766 0.171875 m /period glyphshow
11.449219 0.171875 m /zero glyphshow
19.083984 0.171875 m /one glyphshow
grestore
gsave
/o {
gsave
newpath
translate
0.5 setlinewidth
1 setlinejoin
0 setlinecap
0 0 m
4 0 l
gsave
0.000 setgray
fill
grestore
stroke
grestore
} bind def
72 181.44 o
grestore
gsave
/o {
gsave
newpath
translate
0.5 setlinewidth
1 setlinejoin
0 setlinecap
0 0 m
-4 0 l
gsave
0.000 setgray
fill
grestore
stroke
grestore
} bind def
518.4 181.44 o
grestore
gsave
43.265625 176.900937 translate
0.000000 rotate
0.000000 0.171875 m /zero glyphshow
7.634766 0.171875 m /period glyphshow
11.449219 0.171875 m /zero glyphshow
19.083984 0.171875 m /two glyphshow
grestore
gsave
/o {
gsave
newpath
translate
0.5 setlinewidth
1 setlinejoin
0 setlinecap
0 0 m
4 0 l
gsave
0.000 setgray
fill
grestore
stroke
grestore
} bind def
72 250.56 o
grestore
gsave
/o {
gsave
newpath
translate
0.5 setlinewidth
1 setlinejoin
0 setlinecap
0 0 m
-4 0 l
gsave
0.000 setgray
fill
grestore
stroke
grestore
} bind def
518.4 250.56 o
grestore
gsave
43.031250 246.020937 translate
0.000000 rotate
0.000000 0.171875 m /zero glyphshow
7.634766 0.171875 m /period glyphshow
11.449219 0.171875 m /zero glyphshow
19.083984 0.171875 m /three glyphshow
grestore
gsave
/o {
gsave
newpath
translate
0.5 setlinewidth
1 setlinejoin
0 setlinecap
0 0 m
4 0 l
gsave
0.000 setgray
fill
grestore
stroke
grestore
} bind def
72 319.68 o
grestore
gsave
/o {
gsave
newpath
translate
0.5 setlinewidth
1 setlinejoin
0 setlinecap
0 0 m
-4 0 l
gsave
0.000 setgray
fill
grestore
stroke
grestore
} bind def
518.4 319.68 o
grestore
gsave
42.734375 315.140938 translate
0.000000 rotate
0.000000 0.171875 m /zero glyphshow
7.634766 0.171875 m /period glyphshow
11.449219 0.171875 m /zero glyphshow
19.083984 0.171875 m /four glyphshow
grestore
gsave
/o {
gsave
newpath
translate
0.5 setlinewidth
1 setlinejoin
0 setlinecap
0 0 m
4 0 l
gsave
0.000 setgray
fill
grestore
stroke
grestore
} bind def
72 388.8 o
grestore
gsave
/o {
gsave
newpath
translate
0.5 setlinewidth
1 setlinejoin
0 setlinecap
0 0 m
-4 0 l
gsave
0.000 setgray
fill
grestore
stroke
grestore
} bind def
518.4 388.8 o
grestore
gsave
43.109375 384.260938 translate
0.000000 rotate
0.000000 0.171875 m /zero glyphshow
7.634766 0.171875 m /period glyphshow
11.449219 0.171875 m /zero glyphshow
19.083984 0.171875 m /five glyphshow
grestore
gsave
37.734375 183.000000 translate
90.000000 rotate
/BitstreamVeraSans-Roman findfont
15.0 scalefont
setfont
0.000000 2.625000 moveto
/space glyphshow

/Cmmi10 findfont
15.0 scalefont
setfont
4.768066 2.625000 moveto
/sigma glyphshow

/BitstreamVeraSans-Roman findfont
15.0 scalefont
setfont
13.330078 2.625000 moveto
/space glyphshow

18.098145 2.625000 moveto
/parenleft glyphshow

23.950195 2.625000 moveto
/N glyphshow

35.170898 2.625000 moveto
/slash glyphshow

40.224609 2.625000 moveto
/m glyphshow

54.836426 2.625000 moveto
/parenright glyphshow

60.688477 2.625000 moveto
/space glyphshow


grestore
1.000 setlinewidth
2 setlinecap
gsave
72 43.2 m
72 388.8 l
stroke
grestore
gsave
72 43.2 m
518.4 43.2 l
stroke
grestore
gsave
518.4 43.2 m
518.4 388.8 l
stroke
grestore
gsave
72 388.8 m
518.4 388.8 l
stroke
grestore
/BitstreamVeraSans-Roman findfont
20.000 scalefont
setfont
gsave
76.684375 393.518750 translate
0.000000 rotate
0.000000 0.281250 m /S glyphshow
12.695312 0.281250 m /u glyphshow
25.371094 0.281250 m /r glyphshow
33.593750 0.281250 m /f glyphshow
40.634766 0.281250 m /a glyphshow
52.890625 0.281250 m /c glyphshow
63.886719 0.281250 m /e glyphshow
76.191406 0.281250 m /space glyphshow
82.548828 0.281250 m /T glyphshow
91.390625 0.281250 m /e glyphshow
103.695312 0.281250 m /n glyphshow
116.371094 0.281250 m /s glyphshow
126.791016 0.281250 m /i glyphshow
132.347656 0.281250 m /o glyphshow
144.583984 0.281250 m /n glyphshow
157.259766 0.281250 m /space glyphshow
163.617188 0.281250 m /f glyphshow
170.658203 0.281250 m /o glyphshow
182.894531 0.281250 m /r glyphshow
191.117188 0.281250 m /space glyphshow
197.474609 0.281250 m /d glyphshow
210.169922 0.281250 m /i glyphshow
215.726562 0.281250 m /f glyphshow
222.767578 0.281250 m /f glyphshow
229.808594 0.281250 m /e glyphshow
242.113281 0.281250 m /r glyphshow
249.835938 0.281250 m /e glyphshow
262.140625 0.281250 m /n glyphshow
274.816406 0.281250 m /t glyphshow
282.658203 0.281250 m /space glyphshow
289.015625 0.281250 m /c glyphshow
300.011719 0.281250 m /o glyphshow
312.248047 0.281250 m /n glyphshow
324.923828 0.281250 m /c glyphshow
335.919922 0.281250 m /e glyphshow
348.224609 0.281250 m /n glyphshow
360.900391 0.281250 m /t glyphshow
368.742188 0.281250 m /r glyphshow
376.964844 0.281250 m /a glyphshow
389.220703 0.281250 m /t glyphshow
397.062500 0.281250 m /i glyphshow
402.619141 0.281250 m /o glyphshow
414.855469 0.281250 m /n glyphshow
427.531250 0.281250 m /s glyphshow
grestore
gsave
310.947 50.7 m
510.9 50.7 l
510.9 162.372 l
310.947 162.372 l
310.947 50.7 l
cl
gsave
1.000 setgray
fill
grestore
stroke
grestore
/p5_0 {
newpath
translate
321.447 142.731 m
321.447 157.731 l
} bind def
/p5_1 {
newpath
translate
342.447 142.731 m
342.447 157.731 l
} bind def
0 setlinecap
0.000 0.000 1.000 setrgbcolor
gsave
0 0 p5_0
stroke
grestore
gsave
0 0 p5_1
stroke
grestore
0.500 setlinewidth
gsave
/o {
gsave
newpath
translate
0.5 setlinewidth
1 setlinejoin
0 setlinecap
3 -1.83697e-16 m
-3 1.83697e-16 l
gsave
0.000 0.000 1.000 setrgbcolor
fill
grestore
stroke
grestore
} bind def
321.447 142.731 o
342.447 142.731 o
grestore
gsave
/o {
gsave
newpath
translate
0.5 setlinewidth
1 setlinejoin
0 setlinecap
3 -1.83697e-16 m
-3 1.83697e-16 l
gsave
0.000 0.000 1.000 setrgbcolor
fill
grestore
stroke
grestore
} bind def
321.447 157.731 o
342.447 157.731 o
grestore
0.000 setgray
gsave
/o {
gsave
newpath
translate
0.5 setlinewidth
1 setlinejoin
0 setlinecap
0 -3.5 m
0.928211 -3.5 1.81853 -3.13122 2.47487 -2.47487 c
3.13122 -1.81853 3.5 -0.928211 3.5 0 c
3.5 0.928211 3.13122 1.81853 2.47487 2.47487 c
1.81853 3.13122 0.928211 3.5 0 3.5 c
-0.928211 3.5 -1.81853 3.13122 -2.47487 2.47487 c
-3.13122 1.81853 -3.5 0.928211 -3.5 0 c
-3.5 -0.928211 -3.13122 -1.81853 -2.47487 -2.47487 c
-1.81853 -3.13122 -0.928211 -3.5 0 -3.5 c
cl
gsave
0.000 0.000 1.000 setrgbcolor
fill
grestore
stroke
grestore
} bind def
321.447 150.231 o
342.447 150.231 o
grestore
/BitstreamVeraSans-Roman findfont
15.000 scalefont
setfont
gsave
358.946875 144.762500 translate
0.000000 rotate
0.000000 0.218750 m /c glyphshow
8.247070 0.218750 m /o glyphshow
17.424316 0.218750 m /n glyphshow
26.931152 0.218750 m /c glyphshow
35.178223 0.218750 m /e glyphshow
44.406738 0.218750 m /n glyphshow
53.913574 0.218750 m /t glyphshow
59.794922 0.218750 m /r glyphshow
65.961914 0.218750 m /a glyphshow
75.153809 0.218750 m /t glyphshow
81.035156 0.218750 m /i glyphshow
85.202637 0.218750 m /o glyphshow
94.379883 0.218750 m /n glyphshow
103.886719 0.218750 m /space glyphshow
108.654785 0.218750 m /zero glyphshow
118.198242 0.218750 m /period glyphshow
122.966309 0.218750 m /five glyphshow
132.509766 0.218750 m /percent glyphshow
grestore
/p6_0 {
newpath
translate
321.447 120.716 m
321.447 135.716 l
} bind def
/p6_1 {
newpath
translate
342.447 120.716 m
342.447 135.716 l
} bind def
1.000 setlinewidth
1.000 0.000 0.000 setrgbcolor
gsave
0 0 p6_0
stroke
grestore
gsave
0 0 p6_1
stroke
grestore
0.500 setlinewidth
gsave
/o {
gsave
newpath
translate
0.5 setlinewidth
1 setlinejoin
0 setlinecap
3 -1.83697e-16 m
-3 1.83697e-16 l
gsave
1.000 0.000 0.000 setrgbcolor
fill
grestore
stroke
grestore
} bind def
321.447 120.716 o
342.447 120.716 o
grestore
gsave
/o {
gsave
newpath
translate
0.5 setlinewidth
1 setlinejoin
0 setlinecap
3 -1.83697e-16 m
-3 1.83697e-16 l
gsave
1.000 0.000 0.000 setrgbcolor
fill
grestore
stroke
grestore
} bind def
321.447 135.716 o
342.447 135.716 o
grestore
0.000 setgray
gsave
/o {
gsave
newpath
translate
0.5 setlinewidth
1 setlinejoin
0 setlinecap
0 -3.5 m
0.928211 -3.5 1.81853 -3.13122 2.47487 -2.47487 c
3.13122 -1.81853 3.5 -0.928211 3.5 0 c
3.5 0.928211 3.13122 1.81853 2.47487 2.47487 c
1.81853 3.13122 0.928211 3.5 0 3.5 c
-0.928211 3.5 -1.81853 3.13122 -2.47487 2.47487 c
-3.13122 1.81853 -3.5 0.928211 -3.5 0 c
-3.5 -0.928211 -3.13122 -1.81853 -2.47487 -2.47487 c
-1.81853 -3.13122 -0.928211 -3.5 0 -3.5 c
cl
gsave
1.000 0.000 0.000 setrgbcolor
fill
grestore
stroke
grestore
} bind def
321.447 128.216 o
342.447 128.216 o
grestore
gsave
358.946875 122.746875 translate
0.000000 rotate
0.000000 0.218750 m /c glyphshow
8.247070 0.218750 m /o glyphshow
17.424316 0.218750 m /n glyphshow
26.931152 0.218750 m /c glyphshow
35.178223 0.218750 m /e glyphshow
44.406738 0.218750 m /n glyphshow
53.913574 0.218750 m /t glyphshow
59.794922 0.218750 m /r glyphshow
65.961914 0.218750 m /a glyphshow
75.153809 0.218750 m /t glyphshow
81.035156 0.218750 m /i glyphshow
85.202637 0.218750 m /o glyphshow
94.379883 0.218750 m /n glyphshow
103.886719 0.218750 m /space glyphshow
108.654785 0.218750 m /one glyphshow
118.198242 0.218750 m /percent glyphshow
grestore
/p7_0 {
newpath
translate
321.447 98.7 m
321.447 113.7 l
} bind def
/p7_1 {
newpath
translate
342.447 98.7 m
342.447 113.7 l
} bind def
1.000 setlinewidth
gsave
0 0 p7_0
stroke
grestore
gsave
0 0 p7_1
stroke
grestore
0.500 setlinewidth
gsave
/o {
gsave
newpath
translate
0.5 setlinewidth
1 setlinejoin
0 setlinecap
3 -1.83697e-16 m
-3 1.83697e-16 l
gsave
0.000 setgray
fill
grestore
stroke
grestore
} bind def
321.447 98.7 o
342.447 98.7 o
grestore
gsave
/o {
gsave
newpath
translate
0.5 setlinewidth
1 setlinejoin
0 setlinecap
3 -1.83697e-16 m
-3 1.83697e-16 l
gsave
0.000 setgray
fill
grestore
stroke
grestore
} bind def
321.447 113.7 o
342.447 113.7 o
grestore
gsave
/o {
gsave
newpath
translate
0.5 setlinewidth
1 setlinejoin
0 setlinecap
0 -3.5 m
0.928211 -3.5 1.81853 -3.13122 2.47487 -2.47487 c
3.13122 -1.81853 3.5 -0.928211 3.5 0 c
3.5 0.928211 3.13122 1.81853 2.47487 2.47487 c
1.81853 3.13122 0.928211 3.5 0 3.5 c
-0.928211 3.5 -1.81853 3.13122 -2.47487 2.47487 c
-3.13122 1.81853 -3.5 0.928211 -3.5 0 c
-3.5 -0.928211 -3.13122 -1.81853 -2.47487 -2.47487 c
-1.81853 -3.13122 -0.928211 -3.5 0 -3.5 c
cl
gsave
0.000 setgray
fill
grestore
stroke
grestore
} bind def
321.447 106.2 o
342.447 106.2 o
grestore
gsave
358.946875 100.731250 translate
0.000000 rotate
0.000000 0.218750 m /c glyphshow
8.247070 0.218750 m /o glyphshow
17.424316 0.218750 m /n glyphshow
26.931152 0.218750 m /c glyphshow
35.178223 0.218750 m /e glyphshow
44.406738 0.218750 m /n glyphshow
53.913574 0.218750 m /t glyphshow
59.794922 0.218750 m /r glyphshow
65.961914 0.218750 m /a glyphshow
75.153809 0.218750 m /t glyphshow
81.035156 0.218750 m /i glyphshow
85.202637 0.218750 m /o glyphshow
94.379883 0.218750 m /n glyphshow
103.886719 0.218750 m /space glyphshow
108.654785 0.218750 m /two glyphshow
118.198242 0.218750 m /percent glyphshow
grestore
/p8_0 {
newpath
translate
321.447 76.6844 m
321.447 91.6844 l
} bind def
/p8_1 {
newpath
translate
342.447 76.6844 m
342.447 91.6844 l
} bind def
1.000 setlinewidth
0.000 0.502 0.000 setrgbcolor
gsave
0 0 p8_0
stroke
grestore
gsave
0 0 p8_1
stroke
grestore
0.500 setlinewidth
gsave
/o {
gsave
newpath
translate
0.5 setlinewidth
1 setlinejoin
0 setlinecap
3 -1.83697e-16 m
-3 1.83697e-16 l
gsave
0.000 0.502 0.000 setrgbcolor
fill
grestore
stroke
grestore
} bind def
321.447 76.6844 o
342.447 76.6844 o
grestore
gsave
/o {
gsave
newpath
translate
0.5 setlinewidth
1 setlinejoin
0 setlinecap
3 -1.83697e-16 m
-3 1.83697e-16 l
gsave
0.000 0.502 0.000 setrgbcolor
fill
grestore
stroke
grestore
} bind def
321.447 91.6844 o
342.447 91.6844 o
grestore
0.000 setgray
gsave
/o {
gsave
newpath
translate
0.5 setlinewidth
1 setlinejoin
0 setlinecap
0 -3.5 m
0.928211 -3.5 1.81853 -3.13122 2.47487 -2.47487 c
3.13122 -1.81853 3.5 -0.928211 3.5 0 c
3.5 0.928211 3.13122 1.81853 2.47487 2.47487 c
1.81853 3.13122 0.928211 3.5 0 3.5 c
-0.928211 3.5 -1.81853 3.13122 -2.47487 2.47487 c
-3.13122 1.81853 -3.5 0.928211 -3.5 0 c
-3.5 -0.928211 -3.13122 -1.81853 -2.47487 -2.47487 c
-1.81853 -3.13122 -0.928211 -3.5 0 -3.5 c
cl
gsave
0.000 0.502 0.000 setrgbcolor
fill
grestore
stroke
grestore
} bind def
321.447 84.1844 o
342.447 84.1844 o
grestore
gsave
358.946875 78.715625 translate
0.000000 rotate
0.000000 0.218750 m /c glyphshow
8.247070 0.218750 m /o glyphshow
17.424316 0.218750 m /n glyphshow
26.931152 0.218750 m /c glyphshow
35.178223 0.218750 m /e glyphshow
44.406738 0.218750 m /n glyphshow
53.913574 0.218750 m /t glyphshow
59.794922 0.218750 m /r glyphshow
65.961914 0.218750 m /a glyphshow
75.153809 0.218750 m /t glyphshow
81.035156 0.218750 m /i glyphshow
85.202637 0.218750 m /o glyphshow
94.379883 0.218750 m /n glyphshow
103.886719 0.218750 m /space glyphshow
108.654785 0.218750 m /four glyphshow
118.198242 0.218750 m /percent glyphshow
grestore
/p9_0 {
newpath
translate
321.447 54.6687 m
321.447 69.6687 l
} bind def
/p9_1 {
newpath
translate
342.447 54.6687 m
342.447 69.6687 l
} bind def
1.000 setlinewidth
0.000 1.000 1.000 setrgbcolor
gsave
0 0 p9_0
stroke
grestore
gsave
0 0 p9_1
stroke
grestore
0.500 setlinewidth
gsave
/o {
gsave
newpath
translate
0.5 setlinewidth
1 setlinejoin
0 setlinecap
3 -1.83697e-16 m
-3 1.83697e-16 l
gsave
0.000 1.000 1.000 setrgbcolor
fill
grestore
stroke
grestore
} bind def
321.447 54.6687 o
342.447 54.6687 o
grestore
gsave
/o {
gsave
newpath
translate
0.5 setlinewidth
1 setlinejoin
0 setlinecap
3 -1.83697e-16 m
-3 1.83697e-16 l
gsave
0.000 1.000 1.000 setrgbcolor
fill
grestore
stroke
grestore
} bind def
321.447 69.6687 o
342.447 69.6687 o
grestore
0.000 setgray
gsave
/o {
gsave
newpath
translate
0.5 setlinewidth
1 setlinejoin
0 setlinecap
0 -3.5 m
0.928211 -3.5 1.81853 -3.13122 2.47487 -2.47487 c
3.13122 -1.81853 3.5 -0.928211 3.5 0 c
3.5 0.928211 3.13122 1.81853 2.47487 2.47487 c
1.81853 3.13122 0.928211 3.5 0 3.5 c
-0.928211 3.5 -1.81853 3.13122 -2.47487 2.47487 c
-3.13122 1.81853 -3.5 0.928211 -3.5 0 c
-3.5 -0.928211 -3.13122 -1.81853 -2.47487 -2.47487 c
-1.81853 -3.13122 -0.928211 -3.5 0 -3.5 c
cl
gsave
0.000 1.000 1.000 setrgbcolor
fill
grestore
stroke
grestore
} bind def
321.447 62.1687 o
342.447 62.1687 o
grestore
gsave
358.946875 56.700000 translate
0.000000 rotate
0.000000 0.218750 m /c glyphshow
8.247070 0.218750 m /o glyphshow
17.424316 0.218750 m /n glyphshow
26.931152 0.218750 m /c glyphshow
35.178223 0.218750 m /e glyphshow
44.406738 0.218750 m /n glyphshow
53.913574 0.218750 m /t glyphshow
59.794922 0.218750 m /r glyphshow
65.961914 0.218750 m /a glyphshow
75.153809 0.218750 m /t glyphshow
81.035156 0.218750 m /i glyphshow
85.202637 0.218750 m /o glyphshow
94.379883 0.218750 m /n glyphshow
103.886719 0.218750 m /space glyphshow
108.654785 0.218750 m /six glyphshow
118.198242 0.218750 m /percent glyphshow
grestore

end
showpage
